{
  "LessonsDictionary":
  {
    "0":
    {
      "1":[9],
      "3":[10],
      "5":[11],
      "7":[10],
      "9":[9],
      "11":[10],
      "13":[11],
      "15":[10],
      "17":[9],
      "19":[10],
      "21":[11],
      "23":[]
    },
    "1":
    {
      "1":[6],
      "17":[7],
      "33":[8],
      "49":[]
    },
    "2":
    {
      "1":[0, 3],
      "9":[4],
      "17":[1, 3],
      "25":[4],
      "33":[2, 3],
      "41":[4],
      "49":[]
    },
    "3":
    {
      "1":[9, 0],
      "5":[11],
      "9":[9],
      "13":[11],
      "17":[9, 1],
      "21":[11],
      "25":[9],
      "29":[11],
      "33":[]
    },
    "4":
    {
      "1":[0, 6, 9],
      "5":[11],
      "9":[9],
      "13":[11, 7],
      "17":[9],
      "21":[11],
      "25":[9],
      "29":[8, 11],
      "33":[9, 1],
      "37":[11],
      "41":[9],
      "45":[11],
      "49":[]
    }
  }
}