{
  "AllStyles": [
    {
      "KindOfStyle": "Hip-Hop",
      "Styles": [
        "Hip-Hop 10s",
        "Hip-Hop 90s"
      ]
    },
    {
      "KindOfStyle": "Drum And Bass",
      "Styles": [
        "Tech DNB v1",
        "Tech DNB v2"
      ]
    },
    {
      "KindOfStyle": "EDM",
      "Styles": [
        "Big Room EDM",
        "UK BASSLINE"
      ]
    },
    {
      "KindOfStyle": "Electronic Downtempo",
      "Styles": [
        "DowntempoChill",
        "Retro Collection vol 1"
      ]
    },
    {
      "KindOfStyle": "House",
      "Styles": [
        "MinimalHouse",
        "Retro vibes"
      ]
    },
    {
      "KindOfStyle": "Organic",
      "Styles": [
        "Instrumental Essential vol 1",
        "Organic Electronic vol 1"
      ]
    },
    {
      "KindOfStyle": "Trap",
      "Styles": [
        "Asian Trap",
        "Classic Trap"
      ]
    }
  ]
}
