{
  "project_info": {
    "project_number": "434889623946",
    "project_id": "kawai-39d97",
    "storage_bucket": "kawai-39d97.appspot.com"
  },
  "client": [
    {
      "client_info": {
        "mobilesdk_app_id": "1:434889623946:ios:42f7b31da75cb31f606073",
        "android_client_info": {
          "package_name": "com.unity.pushtestNew"
        }
      },
      "oauth_client": [
        {
          "client_id": "434889623946-svuausq0ftt82britoaqbvu6obvvb89f.apps.googleusercontent.com"
        }
      ],
      "api_key": [
        {
          "current_key": "AIzaSyDX8lzN9aw9nB3BVCNVrqdBd39LQdMKl4E"
        }
      ],
      "services": {
        "analytics_service": {
          "status": 0
        },
        "appinvite_service": {
          "status": 1
        }
      }
    }
  ],
  "configuration_version": "1"
}