%YAML 1.1
%TAG !u! tag:unity3d.com,2011:
--- !u!74 &7400000
AnimationClip:
  m_ObjectHideFlags: 0
  m_CorrespondingSourceObject: {fileID: 0}
  m_PrefabInstance: {fileID: 0}
  m_PrefabAsset: {fileID: 0}
  m_Name: PKMButton
  serializedVersion: 6
  m_Legacy: 0
  m_Compressed: 0
  m_UseHighQualityCurve: 1
  m_RotationCurves: []
  m_CompressedRotationCurves: []
  m_EulerCurves: []
  m_PositionCurves: []
  m_ScaleCurves:
  - curve:
      serializedVersion: 2
      m_Curve:
      - serializedVersion: 3
        time: 0
        value: {x: 1, y: 1, z: 1}
        inSlope: {x: 0, y: 0, z: 0}
        outSlope: {x: 0, y: 0, z: 0}
        tangentMode: 0
        weightedMode: 0
        inWeight: {x: 0.33333334, y: 0.33333334, z: 0.33333334}
        outWeight: {x: 0.33333334, y: 0.33333334, z: 0.33333334}
      - serializedVersion: 3
        time: 0.23333333
        value: {x: 1.2, y: 1.2, z: 1}
        inSlope: {x: 0, y: 0, z: 0}
        outSlope: {x: 0, y: 0, z: 0}
        tangentMode: 0
        weightedMode: 0
        inWeight: {x: 0.33333334, y: 0.33333334, z: 0.33333334}
        outWeight: {x: 0.33333334, y: 0.33333334, z: 0.33333334}
      - serializedVersion: 3
        time: 0.25
        value: {x: 1.2, y: 1.2, z: 1}
        inSlope: {x: 0, y: 0, z: 0}
        outSlope: {x: 0, y: 0, z: 0}
        tangentMode: 0
        weightedMode: 0
        inWeight: {x: 0.33333334, y: 0.33333334, z: 0.33333334}
        outWeight: {x: 0.33333334, y: 0.33333334, z: 0.33333334}
      - serializedVersion: 3
        time: 0.26666668
        value: {x: 1.2, y: 1.2, z: 1}
        inSlope: {x: 0, y: 0, z: 0}
        outSlope: {x: 0, y: 0, z: 0}
        tangentMode: 0
        weightedMode: 0
        inWeight: {x: 0.33333334, y: 0.33333334, z: 0.33333334}
        outWeight: {x: 0.33333334, y: 0.33333334, z: 0.33333334}
      - serializedVersion: 3
        time: 0.51666665
        value: {x: 1, y: 1, z: 1}
        inSlope: {x: 0, y: 0, z: 0}
        outSlope: {x: 0, y: 0, z: 0}
        tangentMode: 0
        weightedMode: 0
        inWeight: {x: 0.33333334, y: 0.33333334, z: 0.33333334}
        outWeight: {x: 0.33333334, y: 0.33333334, z: 0.33333334}
      m_PreInfinity: 2
      m_PostInfinity: 2
      m_RotationOrder: 4
    path: Text
  m_FloatCurves: []
  m_PPtrCurves:
  - curve:
    - time: 0
      value: {fileID: 21300000, guid: 062d45bd9ab09c4478e728f7c4366fbd, type: 3}
    - time: 0.016666668
      value: {fileID: 21300000, guid: 81a89a38d3d95cd47ba0f21e37f76466, type: 3}
    - time: 0.033333335
      value: {fileID: 21300000, guid: 268e9dddfdf4e4d45b9a5f7de0416cd5, type: 3}
    - time: 0.05
      value: {fileID: 21300000, guid: 148cd152721ff2d42b6d91baf39b7082, type: 3}
    - time: 0.06666667
      value: {fileID: 21300000, guid: a2d72d18520bb384596415cc1c42fd1b, type: 3}
    - time: 0.083333336
      value: {fileID: 21300000, guid: 981a33c2af115734598ec88360176ccf, type: 3}
    - time: 0.1
      value: {fileID: 21300000, guid: 5b9bf1c38fc777c48a2be26afa9590f7, type: 3}
    - time: 0.11666667
      value: {fileID: 21300000, guid: bc1e24afd37fddc4f8085bcb14fe2ec5, type: 3}
    - time: 0.13333334
      value: {fileID: 21300000, guid: a44b95f45a783a14980cb702ed5f7aa3, type: 3}
    - time: 0.15
      value: {fileID: 21300000, guid: 8217521514fac204f98c05cb2b7aa32b, type: 3}
    - time: 0.16666667
      value: {fileID: 21300000, guid: 7dbd7df1788e3d74c8a05e8ef8b06ce4, type: 3}
    - time: 0.18333334
      value: {fileID: 21300000, guid: 4853eaefe2a0b0b4c8c59da52f321eb9, type: 3}
    - time: 0.2
      value: {fileID: 21300000, guid: 5934a8be326e3614d8a6a0ad4c677be4, type: 3}
    - time: 0.21666667
      value: {fileID: 21300000, guid: e91840f9716807e4f8132c69e4fcce87, type: 3}
    - time: 0.23333333
      value: {fileID: 21300000, guid: 774b32cdc46dd0e43adc6b4ed96c1b56, type: 3}
    - time: 0.25
      value: {fileID: 21300000, guid: fd162e4682088124e95d95e494c3da16, type: 3}
    - time: 0.26666668
      value: {fileID: 21300000, guid: 572cf29bb529b7146852b8d488032800, type: 3}
    - time: 0.28333333
      value: {fileID: 21300000, guid: f46e77e6b87bbbb4cbaf8371d8a6db2b, type: 3}
    - time: 0.3
      value: {fileID: 21300000, guid: f39d7838e912f99448232bacd68743be, type: 3}
    - time: 0.31666666
      value: {fileID: 21300000, guid: ab955f5316320ab49827028f67915a04, type: 3}
    - time: 0.33333334
      value: {fileID: 21300000, guid: 105267c4029c2ba4bb83d7b22aeb7fde, type: 3}
    - time: 0.35
      value: {fileID: 21300000, guid: f0dc61966c587954ba37de9aefbf170c, type: 3}
    - time: 0.36666667
      value: {fileID: 21300000, guid: 0aac4f095c0c5df4bbf834c8f3008463, type: 3}
    - time: 0.38333333
      value: {fileID: 21300000, guid: b880ab5923cab35488f5dcf9bd758da1, type: 3}
    - time: 0.4
      value: {fileID: 21300000, guid: a65210e403f405145969f7ab57f16ead, type: 3}
    - time: 0.41666666
      value: {fileID: 21300000, guid: 05d22767b8d7355458b2c936348511ec, type: 3}
    - time: 0.43333334
      value: {fileID: 21300000, guid: 373d821bde3878245b33421c501a3e61, type: 3}
    - time: 0.45
      value: {fileID: 21300000, guid: 9c6d77e378157414a9482b47ecfbab31, type: 3}
    - time: 0.46666667
      value: {fileID: 21300000, guid: 2c477fa2ba1bd6f4b81f0fb27e6254fd, type: 3}
    - time: 0.48333332
      value: {fileID: 21300000, guid: b0b7c35241d7ec642b0ec283b9ce547d, type: 3}
    - time: 0.5
      value: {fileID: 21300000, guid: 71517245dbc52a64b8c32f51c347c54e, type: 3}
    - time: 0.51666665
      value: {fileID: 21300000, guid: 67f35ea871cb8d04480dbe9e6a27ec4d, type: 3}
    attribute: m_Sprite
    path: 
    classID: 114
    script: {fileID: 11500000, guid: fe87c0e1cc204ed48ad3b37840f39efc, type: 3}
  m_SampleRate: 60
  m_WrapMode: 0
  m_Bounds:
    m_Center: {x: 0, y: 0, z: 0}
    m_Extent: {x: 0, y: 0, z: 0}
  m_ClipBindingConstant:
    genericBindings:
    - serializedVersion: 2
      path: 2612594937
      attribute: 3
      script: {fileID: 0}
      typeID: 4
      customType: 0
      isPPtrCurve: 0
    - serializedVersion: 2
      path: 0
      attribute: 2015549526
      script: {fileID: 11500000, guid: fe87c0e1cc204ed48ad3b37840f39efc, type: 3}
      typeID: 114
      customType: 0
      isPPtrCurve: 1
    pptrCurveMapping:
    - {fileID: 21300000, guid: 062d45bd9ab09c4478e728f7c4366fbd, type: 3}
    - {fileID: 21300000, guid: 81a89a38d3d95cd47ba0f21e37f76466, type: 3}
    - {fileID: 21300000, guid: 268e9dddfdf4e4d45b9a5f7de0416cd5, type: 3}
    - {fileID: 21300000, guid: 148cd152721ff2d42b6d91baf39b7082, type: 3}
    - {fileID: 21300000, guid: a2d72d18520bb384596415cc1c42fd1b, type: 3}
    - {fileID: 21300000, guid: 981a33c2af115734598ec88360176ccf, type: 3}
    - {fileID: 21300000, guid: 5b9bf1c38fc777c48a2be26afa9590f7, type: 3}
    - {fileID: 21300000, guid: bc1e24afd37fddc4f8085bcb14fe2ec5, type: 3}
    - {fileID: 21300000, guid: a44b95f45a783a14980cb702ed5f7aa3, type: 3}
    - {fileID: 21300000, guid: 8217521514fac204f98c05cb2b7aa32b, type: 3}
    - {fileID: 21300000, guid: 7dbd7df1788e3d74c8a05e8ef8b06ce4, type: 3}
    - {fileID: 21300000, guid: 4853eaefe2a0b0b4c8c59da52f321eb9, type: 3}
    - {fileID: 21300000, guid: 5934a8be326e3614d8a6a0ad4c677be4, type: 3}
    - {fileID: 21300000, guid: e91840f9716807e4f8132c69e4fcce87, type: 3}
    - {fileID: 21300000, guid: 774b32cdc46dd0e43adc6b4ed96c1b56, type: 3}
    - {fileID: 21300000, guid: fd162e4682088124e95d95e494c3da16, type: 3}
    - {fileID: 21300000, guid: 572cf29bb529b7146852b8d488032800, type: 3}
    - {fileID: 21300000, guid: f46e77e6b87bbbb4cbaf8371d8a6db2b, type: 3}
    - {fileID: 21300000, guid: f39d7838e912f99448232bacd68743be, type: 3}
    - {fileID: 21300000, guid: ab955f5316320ab49827028f67915a04, type: 3}
    - {fileID: 21300000, guid: 105267c4029c2ba4bb83d7b22aeb7fde, type: 3}
    - {fileID: 21300000, guid: f0dc61966c587954ba37de9aefbf170c, type: 3}
    - {fileID: 21300000, guid: 0aac4f095c0c5df4bbf834c8f3008463, type: 3}
    - {fileID: 21300000, guid: b880ab5923cab35488f5dcf9bd758da1, type: 3}
    - {fileID: 21300000, guid: a65210e403f405145969f7ab57f16ead, type: 3}
    - {fileID: 21300000, guid: 05d22767b8d7355458b2c936348511ec, type: 3}
    - {fileID: 21300000, guid: 373d821bde3878245b33421c501a3e61, type: 3}
    - {fileID: 21300000, guid: 9c6d77e378157414a9482b47ecfbab31, type: 3}
    - {fileID: 21300000, guid: 2c477fa2ba1bd6f4b81f0fb27e6254fd, type: 3}
    - {fileID: 21300000, guid: b0b7c35241d7ec642b0ec283b9ce547d, type: 3}
    - {fileID: 21300000, guid: 71517245dbc52a64b8c32f51c347c54e, type: 3}
    - {fileID: 21300000, guid: 67f35ea871cb8d04480dbe9e6a27ec4d, type: 3}
  m_AnimationClipSettings:
    serializedVersion: 2
    m_AdditiveReferencePoseClip: {fileID: 0}
    m_AdditiveReferencePoseTime: 0
    m_StartTime: 0
    m_StopTime: 0.5333333
    m_OrientationOffsetY: 0
    m_Level: 0
    m_CycleOffset: 0
    m_HasAdditiveReferencePose: 0
    m_LoopTime: 1
    m_LoopBlend: 0
    m_LoopBlendOrientation: 0
    m_LoopBlendPositionY: 0
    m_LoopBlendPositionXZ: 0
    m_KeepOriginalOrientation: 0
    m_KeepOriginalPositionY: 1
    m_KeepOriginalPositionXZ: 0
    m_HeightFromFeet: 0
    m_Mirror: 0
  m_EditorCurves:
  - curve:
      serializedVersion: 2
      m_Curve:
      - serializedVersion: 3
        time: 0
        value: 1
        inSlope: 0
        outSlope: 0
        tangentMode: 136
        weightedMode: 0
        inWeight: 0.33333334
        outWeight: 0.33333334
      - serializedVersion: 3
        time: 0.23333333
        value: 1.2
        inSlope: 0
        outSlope: 0
        tangentMode: 136
        weightedMode: 0
        inWeight: 0.33333334
        outWeight: 0.33333334
      - serializedVersion: 3
        time: 0.25
        value: 1.2
        inSlope: 0
        outSlope: 0
        tangentMode: 136
        weightedMode: 0
        inWeight: 0.33333334
        outWeight: 0.33333334
      - serializedVersion: 3
        time: 0.26666668
        value: 1.2
        inSlope: 0
        outSlope: 0
        tangentMode: 136
        weightedMode: 0
        inWeight: 0.33333334
        outWeight: 0.33333334
      - serializedVersion: 3
        time: 0.51666665
        value: 1
        inSlope: 0
        outSlope: 0
        tangentMode: 136
        weightedMode: 0
        inWeight: 0.33333334
        outWeight: 0.33333334
      m_PreInfinity: 2
      m_PostInfinity: 2
      m_RotationOrder: 4
    attribute: m_LocalScale.x
    path: Text
    classID: 224
    script: {fileID: 0}
  - curve:
      serializedVersion: 2
      m_Curve:
      - serializedVersion: 3
        time: 0
        value: 1
        inSlope: 0
        outSlope: 0
        tangentMode: 136
        weightedMode: 0
        inWeight: 0.33333334
        outWeight: 0.33333334
      - serializedVersion: 3
        time: 0.23333333
        value: 1.2
        inSlope: 0
        outSlope: 0
        tangentMode: 136
        weightedMode: 0
        inWeight: 0.33333334
        outWeight: 0.33333334
      - serializedVersion: 3
        time: 0.25
        value: 1.2
        inSlope: 0
        outSlope: 0
        tangentMode: 136
        weightedMode: 0
        inWeight: 0.33333334
        outWeight: 0.33333334
      - serializedVersion: 3
        time: 0.26666668
        value: 1.2
        inSlope: 0
        outSlope: 0
        tangentMode: 136
        weightedMode: 0
        inWeight: 0.33333334
        outWeight: 0.33333334
      - serializedVersion: 3
        time: 0.51666665
        value: 1
        inSlope: 0
        outSlope: 0
        tangentMode: 136
        weightedMode: 0
        inWeight: 0.33333334
        outWeight: 0.33333334
      m_PreInfinity: 2
      m_PostInfinity: 2
      m_RotationOrder: 4
    attribute: m_LocalScale.y
    path: Text
    classID: 224
    script: {fileID: 0}
  - curve:
      serializedVersion: 2
      m_Curve:
      - serializedVersion: 3
        time: 0
        value: 1
        inSlope: 0
        outSlope: 0
        tangentMode: 136
        weightedMode: 0
        inWeight: 0.33333334
        outWeight: 0.33333334
      - serializedVersion: 3
        time: 0.23333333
        value: 1
        inSlope: 0
        outSlope: 0
        tangentMode: 136
        weightedMode: 0
        inWeight: 0.33333334
        outWeight: 0.33333334
      - serializedVersion: 3
        time: 0.25
        value: 1
        inSlope: 0
        outSlope: 0
        tangentMode: 136
        weightedMode: 0
        inWeight: 0.33333334
        outWeight: 0.33333334
      - serializedVersion: 3
        time: 0.26666668
        value: 1
        inSlope: 0
        outSlope: 0
        tangentMode: 136
        weightedMode: 0
        inWeight: 0.33333334
        outWeight: 0.33333334
      - serializedVersion: 3
        time: 0.51666665
        value: 1
        inSlope: 0
        outSlope: 0
        tangentMode: 136
        weightedMode: 0
        inWeight: 0.33333334
        outWeight: 0.33333334
      m_PreInfinity: 2
      m_PostInfinity: 2
      m_RotationOrder: 4
    attribute: m_LocalScale.z
    path: Text
    classID: 224
    script: {fileID: 0}
  m_EulerEditorCurves: []
  m_HasGenericRootTransform: 0
  m_HasMotionFloatCurves: 0
  m_Events: []
