%YAML 1.1
%TAG !u! tag:unity3d.com,2011:
--- !u!687078895 &4343727234628468602
SpriteAtlas:
  m_ObjectHideFlags: 0
  m_CorrespondingSourceObject: {fileID: 0}
  m_PrefabInstance: {fileID: 0}
  m_PrefabAsset: {fileID: 0}
  m_Name: MoreWindow
  m_EditorData:
    serializedVersion: 2
    textureSettings:
      serializedVersion: 2
      anisoLevel: 1
      compressionQuality: 50
      maxTextureSize: 2048
      textureCompression: 0
      filterMode: 1
      generateMipMaps: 0
      readable: 0
      crunchedCompression: 0
      sRGB: 1
    platformSettings:
    - serializedVersion: 3
      m_BuildTarget: iPhone
      m_MaxTextureSize: 2048
      m_ResizeAlgorithm: 0
      m_TextureFormat: 65
      m_TextureCompression: 1
      m_CompressionQuality: 50
      m_CrunchedCompression: 0
      m_AllowsAlphaSplitting: 0
      m_Overridden: 1
      m_AndroidETC2FallbackOverride: 0
      m_ForceMaximumCompressionQuality_BC6H_BC7: 0
    packingSettings:
      serializedVersion: 2
      padding: 8
      blockOffset: 1
      allowAlphaSplitting: 0
      enableRotation: 0
      enableTightPacking: 0
      enableAlphaDilation: 1
    secondaryTextureSettings: {}
    variantMultiplier: 1
    packables:
    - {fileID: 21300000, guid: a4912e80678264b47923528b8037bcbc, type: 3}
    - {fileID: 21300000, guid: 4fbbc9971885e4be3a9fafb7181e04a8, type: 3}
    - {fileID: 21300000, guid: 068dac2e6285a4404a56a2621fb1460a, type: 3}
    - {fileID: 21300000, guid: f32b2ef093c2345a79202866b478052a, type: 3}
    - {fileID: 21300000, guid: 5530640138b03474a8e7711d3f39fa04, type: 3}
    bindAsDefault: 1
    isAtlasV2: 0
    cachedData: {fileID: 0}
  m_MasterAtlas: {fileID: 0}
  m_PackedSprites:
  - {fileID: 21300000, guid: a4912e80678264b47923528b8037bcbc, type: 3}
  - {fileID: 21300000, guid: f32b2ef093c2345a79202866b478052a, type: 3}
  - {fileID: 21300000, guid: 5530640138b03474a8e7711d3f39fa04, type: 3}
  - {fileID: 21300000, guid: 4fbbc9971885e4be3a9fafb7181e04a8, type: 3}
  - {fileID: 21300000, guid: 068dac2e6285a4404a56a2621fb1460a, type: 3}
  m_PackedSpriteNamesToIndex:
  - Group 214
  - Notification Action (1)
  - Progress Bar
  - Group 211
  - Group 210
  m_RenderDataMap: {}
  m_Tag: MoreWindow
  m_IsVariant: 0
