%YAML 1.1
%TAG !u! tag:unity3d.com,2011:
--- !u!687078895 &4343727234628468602
SpriteAtlas:
  m_ObjectHideFlags: 0
  m_CorrespondingSourceObject: {fileID: 0}
  m_PrefabInstance: {fileID: 0}
  m_PrefabAsset: {fileID: 0}
  m_Name: RecordWindow
  m_EditorData:
    serializedVersion: 2
    textureSettings:
      serializedVersion: 2
      anisoLevel: 1
      compressionQuality: 50
      maxTextureSize: 2048
      textureCompression: 0
      filterMode: 1
      generateMipMaps: 0
      readable: 0
      crunchedCompression: 0
      sRGB: 1
    platformSettings:
    - serializedVersion: 3
      m_BuildTarget: iPhone
      m_MaxTextureSize: 2048
      m_ResizeAlgorithm: 0
      m_TextureFormat: 65
      m_TextureCompression: 1
      m_CompressionQuality: 50
      m_CrunchedCompression: 0
      m_AllowsAlphaSplitting: 0
      m_Overridden: 1
      m_AndroidETC2FallbackOverride: 0
      m_ForceMaximumCompressionQuality_BC6H_BC7: 0
    packingSettings:
      serializedVersion: 2
      padding: 8
      blockOffset: 1
      allowAlphaSplitting: 0
      enableRotation: 0
      enableTightPacking: 0
      enableAlphaDilation: 1
    secondaryTextureSettings: {}
    variantMultiplier: 1
    packables:
    - {fileID: 21300000, guid: c7438cc441dfc405aa9b36fd5ad2db2a, type: 3}
    - {fileID: 21300000, guid: b7c81d67a6b874d2bb0801f39f390f25, type: 3}
    - {fileID: 21300000, guid: 5761d30f44c9648bcbade049021e7324, type: 3}
    - {fileID: 21300000, guid: 75dfbd2a282594af68f73b09b1fc02fa, type: 3}
    - {fileID: 21300000, guid: 2114bd54b02714e709ccd49da5772bdb, type: 3}
    - {fileID: 21300000, guid: 2ad67e90b929e41e2b9c64b141c90fdd, type: 3}
    - {fileID: 21300000, guid: c9b8f1eb0b81940839753fa3aceab0ef, type: 3}
    bindAsDefault: 1
    isAtlasV2: 0
    cachedData: {fileID: 0}
  m_MasterAtlas: {fileID: 0}
  m_PackedSprites:
  - {fileID: 21300000, guid: 2ad67e90b929e41e2b9c64b141c90fdd, type: 3}
  - {fileID: 21300000, guid: 2114bd54b02714e709ccd49da5772bdb, type: 3}
  - {fileID: 21300000, guid: c7438cc441dfc405aa9b36fd5ad2db2a, type: 3}
  - {fileID: 21300000, guid: b7c81d67a6b874d2bb0801f39f390f25, type: 3}
  - {fileID: 21300000, guid: 75dfbd2a282594af68f73b09b1fc02fa, type: 3}
  - {fileID: 21300000, guid: c9b8f1eb0b81940839753fa3aceab0ef, type: 3}
  - {fileID: 21300000, guid: 5761d30f44c9648bcbade049021e7324, type: 3}
  m_PackedSpriteNamesToIndex:
  - Group 99
  - Group 102
  - record-circle
  - record-circle copy
  - refresh-right-square copy
  - charm_rotate-clockwise
  - refresh-right-square
  m_RenderDataMap: {}
  m_Tag: RecordWindow
  m_IsVariant: 0
