%YAML 1.1
%TAG !u! tag:unity3d.com,2011:
--- !u!1001 &1079477629513703363
PrefabInstance:
  m_ObjectHideFlags: 0
  serializedVersion: 2
  m_Modification:
    m_TransformParent: {fileID: 0}
    m_Modifications:
    - target: {fileID: 2798608495321058700, guid: 4fc13add654a14736b9923399662fe8e, type: 3}
      propertyPath: m_SizeDelta.x
      value: 100
      objectReference: {fileID: 0}
    - target: {fileID: 2798608495321058700, guid: 4fc13add654a14736b9923399662fe8e, type: 3}
      propertyPath: m_SizeDelta.y
      value: 100
      objectReference: {fileID: 0}
    - target: {fileID: 2798608495321058700, guid: 4fc13add654a14736b9923399662fe8e, type: 3}
      propertyPath: m_AnchoredPosition.x
      value: -75
      objectReference: {fileID: 0}
    - target: {fileID: 2798608495321058700, guid: 4fc13add654a14736b9923399662fe8e, type: 3}
      propertyPath: m_AnchoredPosition.y
      value: 75
      objectReference: {fileID: 0}
    - target: {fileID: 4303458755642706041, guid: 4fc13add654a14736b9923399662fe8e, type: 3}
      propertyPath: m_Name
      value: Music Style Variant
      objectReference: {fileID: 0}
    - target: {fileID: 4303458755642706042, guid: 4fc13add654a14736b9923399662fe8e, type: 3}
      propertyPath: m_Pivot.x
      value: 0.5
      objectReference: {fileID: 0}
    - target: {fileID: 4303458755642706042, guid: 4fc13add654a14736b9923399662fe8e, type: 3}
      propertyPath: m_Pivot.y
      value: 0.5
      objectReference: {fileID: 0}
    - target: {fileID: 4303458755642706042, guid: 4fc13add654a14736b9923399662fe8e, type: 3}
      propertyPath: m_RootOrder
      value: 0
      objectReference: {fileID: 0}
    - target: {fileID: 4303458755642706042, guid: 4fc13add654a14736b9923399662fe8e, type: 3}
      propertyPath: m_AnchorMax.x
      value: 0
      objectReference: {fileID: 0}
    - target: {fileID: 4303458755642706042, guid: 4fc13add654a14736b9923399662fe8e, type: 3}
      propertyPath: m_AnchorMax.y
      value: 1
      objectReference: {fileID: 0}
    - target: {fileID: 4303458755642706042, guid: 4fc13add654a14736b9923399662fe8e, type: 3}
      propertyPath: m_AnchorMin.x
      value: 0
      objectReference: {fileID: 0}
    - target: {fileID: 4303458755642706042, guid: 4fc13add654a14736b9923399662fe8e, type: 3}
      propertyPath: m_AnchorMin.y
      value: 1
      objectReference: {fileID: 0}
    - target: {fileID: 4303458755642706042, guid: 4fc13add654a14736b9923399662fe8e, type: 3}
      propertyPath: m_SizeDelta.x
      value: 300
      objectReference: {fileID: 0}
    - target: {fileID: 4303458755642706042, guid: 4fc13add654a14736b9923399662fe8e, type: 3}
      propertyPath: m_SizeDelta.y
      value: 425
      objectReference: {fileID: 0}
    - target: {fileID: 4303458755642706042, guid: 4fc13add654a14736b9923399662fe8e, type: 3}
      propertyPath: m_LocalPosition.x
      value: 0
      objectReference: {fileID: 0}
    - target: {fileID: 4303458755642706042, guid: 4fc13add654a14736b9923399662fe8e, type: 3}
      propertyPath: m_LocalPosition.y
      value: 0
      objectReference: {fileID: 0}
    - target: {fileID: 4303458755642706042, guid: 4fc13add654a14736b9923399662fe8e, type: 3}
      propertyPath: m_LocalPosition.z
      value: 0
      objectReference: {fileID: 0}
    - target: {fileID: 4303458755642706042, guid: 4fc13add654a14736b9923399662fe8e, type: 3}
      propertyPath: m_LocalRotation.w
      value: 1
      objectReference: {fileID: 0}
    - target: {fileID: 4303458755642706042, guid: 4fc13add654a14736b9923399662fe8e, type: 3}
      propertyPath: m_LocalRotation.x
      value: 0
      objectReference: {fileID: 0}
    - target: {fileID: 4303458755642706042, guid: 4fc13add654a14736b9923399662fe8e, type: 3}
      propertyPath: m_LocalRotation.y
      value: 0
      objectReference: {fileID: 0}
    - target: {fileID: 4303458755642706042, guid: 4fc13add654a14736b9923399662fe8e, type: 3}
      propertyPath: m_LocalRotation.z
      value: 0
      objectReference: {fileID: 0}
    - target: {fileID: 4303458755642706042, guid: 4fc13add654a14736b9923399662fe8e, type: 3}
      propertyPath: m_AnchoredPosition.x
      value: 220
      objectReference: {fileID: 0}
    - target: {fileID: 4303458755642706042, guid: 4fc13add654a14736b9923399662fe8e, type: 3}
      propertyPath: m_AnchoredPosition.y
      value: -300
      objectReference: {fileID: 0}
    - target: {fileID: 4303458755642706042, guid: 4fc13add654a14736b9923399662fe8e, type: 3}
      propertyPath: m_LocalEulerAnglesHint.x
      value: 0
      objectReference: {fileID: 0}
    - target: {fileID: 4303458755642706042, guid: 4fc13add654a14736b9923399662fe8e, type: 3}
      propertyPath: m_LocalEulerAnglesHint.y
      value: 0
      objectReference: {fileID: 0}
    - target: {fileID: 4303458755642706042, guid: 4fc13add654a14736b9923399662fe8e, type: 3}
      propertyPath: m_LocalEulerAnglesHint.z
      value: 0
      objectReference: {fileID: 0}
    - target: {fileID: 4303458756316748449, guid: 4fc13add654a14736b9923399662fe8e, type: 3}
      propertyPath: m_Pivot.y
      value: 1
      objectReference: {fileID: 0}
    - target: {fileID: 4303458756316748449, guid: 4fc13add654a14736b9923399662fe8e, type: 3}
      propertyPath: m_AnchorMax.y
      value: 1
      objectReference: {fileID: 0}
    - target: {fileID: 4303458756316748449, guid: 4fc13add654a14736b9923399662fe8e, type: 3}
      propertyPath: m_AnchorMin.y
      value: 1
      objectReference: {fileID: 0}
    - target: {fileID: 4303458756316748449, guid: 4fc13add654a14736b9923399662fe8e, type: 3}
      propertyPath: m_SizeDelta.x
      value: 0
      objectReference: {fileID: 0}
    - target: {fileID: 4303458756316748449, guid: 4fc13add654a14736b9923399662fe8e, type: 3}
      propertyPath: m_SizeDelta.y
      value: 0
      objectReference: {fileID: 0}
    - target: {fileID: 4303458756316748449, guid: 4fc13add654a14736b9923399662fe8e, type: 3}
      propertyPath: m_AnchoredPosition.x
      value: 0
      objectReference: {fileID: 0}
    - target: {fileID: 4303458756316748449, guid: 4fc13add654a14736b9923399662fe8e, type: 3}
      propertyPath: m_AnchoredPosition.y
      value: 0
      objectReference: {fileID: 0}
    - target: {fileID: 4303458756316748450, guid: 4fc13add654a14736b9923399662fe8e, type: 3}
      propertyPath: m_Text
      value: Name StyleName StyleName Style
      objectReference: {fileID: 0}
    - target: {fileID: 4303458756316748450, guid: 4fc13add654a14736b9923399662fe8e, type: 3}
      propertyPath: m_FontData.m_MinSize
      value: 3
      objectReference: {fileID: 0}
    - target: {fileID: 4303458756316748450, guid: 4fc13add654a14736b9923399662fe8e, type: 3}
      propertyPath: m_FontData.m_FontSize
      value: 35
      objectReference: {fileID: 0}
    - target: {fileID: 4303458756657722000, guid: 4fc13add654a14736b9923399662fe8e, type: 3}
      propertyPath: m_FontData.m_MinSize
      value: 2
      objectReference: {fileID: 0}
    - target: {fileID: 4303458756657722000, guid: 4fc13add654a14736b9923399662fe8e, type: 3}
      propertyPath: m_FontData.m_FontSize
      value: 30
      objectReference: {fileID: 0}
    - target: {fileID: 4303458756657722007, guid: 4fc13add654a14736b9923399662fe8e, type: 3}
      propertyPath: m_SizeDelta.x
      value: 0
      objectReference: {fileID: 0}
    - target: {fileID: 4303458756657722007, guid: 4fc13add654a14736b9923399662fe8e, type: 3}
      propertyPath: m_SizeDelta.y
      value: 40
      objectReference: {fileID: 0}
    - target: {fileID: 4303458756657722007, guid: 4fc13add654a14736b9923399662fe8e, type: 3}
      propertyPath: m_AnchoredPosition.x
      value: 0
      objectReference: {fileID: 0}
    - target: {fileID: 4303458756657722007, guid: 4fc13add654a14736b9923399662fe8e, type: 3}
      propertyPath: m_AnchoredPosition.y
      value: 0
      objectReference: {fileID: 0}
    - target: {fileID: 4303458756790714337, guid: 4fc13add654a14736b9923399662fe8e, type: 3}
      propertyPath: m_SizeDelta.x
      value: 300
      objectReference: {fileID: 0}
    - target: {fileID: 4303458756790714337, guid: 4fc13add654a14736b9923399662fe8e, type: 3}
      propertyPath: m_SizeDelta.y
      value: 300
      objectReference: {fileID: 0}
    - target: {fileID: 4303458756790714337, guid: 4fc13add654a14736b9923399662fe8e, type: 3}
      propertyPath: m_AnchoredPosition.x
      value: 0
      objectReference: {fileID: 0}
    - target: {fileID: 4303458756790714337, guid: 4fc13add654a14736b9923399662fe8e, type: 3}
      propertyPath: m_AnchoredPosition.y
      value: 62.5
      objectReference: {fileID: 0}
    - target: {fileID: 4750655145333754676, guid: 4fc13add654a14736b9923399662fe8e, type: 3}
      propertyPath: m_ChildControlWidth
      value: 1
      objectReference: {fileID: 0}
    - target: {fileID: 4997871786976117626, guid: 4fc13add654a14736b9923399662fe8e, type: 3}
      propertyPath: m_SizeDelta.x
      value: 300
      objectReference: {fileID: 0}
    - target: {fileID: 4997871786976117626, guid: 4fc13add654a14736b9923399662fe8e, type: 3}
      propertyPath: m_SizeDelta.y
      value: 125
      objectReference: {fileID: 0}
    - target: {fileID: 4997871786976117626, guid: 4fc13add654a14736b9923399662fe8e, type: 3}
      propertyPath: m_AnchoredPosition.x
      value: 0
      objectReference: {fileID: 0}
    - target: {fileID: 4997871786976117626, guid: 4fc13add654a14736b9923399662fe8e, type: 3}
      propertyPath: m_AnchoredPosition.y
      value: -150
      objectReference: {fileID: 0}
    m_RemovedComponents: []
  m_SourcePrefab: {fileID: 100100000, guid: 4fc13add654a14736b9923399662fe8e, type: 3}
